<svg width="40" height="30" viewBox="0 0 40 30" fill="none" xmlns="http://www.w3.org/2000/svg">
<path d="M24.7284 2.41421C25.5094 1.63316 26.7757 1.63316 27.5568 2.41421L38.8705 13.7279C39.6515 14.509 39.6515 15.7753 38.8705 16.5563L37.4563 17.9706C36.6752 18.7516 35.4089 18.7516 34.6279 17.9706L23.3142 6.65685C22.5331 5.87581 22.5331 4.60948 23.3142 3.82843L24.7284 2.41421Z" fill="#011936"/>
<path d="M23.3142 26.4558C22.5331 25.6748 22.5331 24.4085 23.3142 23.6274L34.6279 12.3137C35.4089 11.5327 36.6752 11.5327 37.4563 12.3137L38.8705 13.7279C39.6515 14.509 39.6515 15.7753 38.8705 16.5563L27.5568 27.8701C26.7757 28.6511 25.5094 28.6511 24.7284 27.8701L23.3142 26.4558Z" fill="#011936"/>
<path d="M15 5H10C7.23858 5 5 7.23858 5 10V20C5 22.7614 7.23858 25 10 25H15V30H10C4.47715 30 0 25.5228 0 20V10C0 4.47715 4.47715 0 10 0H15V5Z" fill="#011936"/>
<path d="M12 14C12 12.8954 12.8954 12 14 12H35C36.1046 12 37 12.8954 37 14V16C37 17.1046 36.1046 18 35 18H14C12.8954 18 12 17.1046 12 16V14Z" fill="#011936"/>
</svg>
